<?xml version="1.0" encoding="UTF-8"?>
<svg width="100px" height="130px" viewBox="0 0 100 130" version="1.1" xmlns="http://www.w3.org/2000/svg" xmlns:xlink="http://www.w3.org/1999/xlink">
    <!-- Generator: Sketch 49.1 (51147) - http://www.bohemiancoding.com/sketch -->
    <title>doc</title>
    <desc>Created with Sketch.</desc>
    <defs></defs>
    <g id="Page-1" stroke="none" stroke-width="1" fill="none" fill-rule="evenodd">
        <g id="5.-Doc-(768)" transform="translate(-104.000000, -388.000000)">
            <g id="Group-4" transform="translate(84.000000, 368.000000)">
                <g id="Group">
                    <g id="doc" transform="translate(20.000000, 20.000000)">
                        <g id="Group">
                            <rect id="Rectangle-4-Copy-12" fill="#FFFFFF" x="0" y="0" width="100" height="130"></rect>
                            <rect id="Rectangle" fill="#D5DBE5" x="10" y="102" width="80" height="2"></rect>
                            <rect id="Rectangle-Copy" fill="#D5DBE5" x="10" y="97" width="80" height="2"></rect>
                            <rect id="Rectangle-Copy-2" fill="#D5DBE5" x="10" y="92" width="80" height="2"></rect>
                            <rect id="Rectangle-Copy-3" fill="#D5DBE5" x="10" y="87" width="80" height="2"></rect>
                            <rect id="Rectangle-Copy-7" fill="#D5DBE5" x="10" y="82" width="80" height="2"></rect>
                            <rect id="Rectangle-Copy-6" fill="#D5DBE5" x="10" y="77" width="80" height="2"></rect>
                            <rect id="Rectangle-Copy-5" fill="#D5DBE5" x="10" y="72" width="80" height="2"></rect>
                            <rect id="Rectangle-Copy-4" fill="#D5DBE5" x="10" y="67" width="80" height="2"></rect>
                            <rect id="Rectangle-Copy-11" fill="#D5DBE5" x="10" y="62" width="80" height="2"></rect>
                            <rect id="Rectangle-Copy-10" fill="#D5DBE5" x="10" y="57" width="80" height="2"></rect>
                            <rect id="Rectangle-Copy-9" fill="#D5DBE5" x="10" y="52" width="80" height="2"></rect>
                            <rect id="Rectangle-Copy-8" fill="#D5DBE5" x="10" y="47" width="80" height="2"></rect>
                            <rect id="Rectangle-Copy-13" fill="#D5DBE5" x="10" y="42" width="80" height="2"></rect>
                            <rect id="Rectangle-Copy-12" fill="#D5DBE5" x="10" y="37" width="80" height="2"></rect>
                            <rect id="Rectangle-Copy-15" fill="#D5DBE5" x="60" y="22" width="30" height="2"></rect>
                            <rect id="Rectangle-Copy-14" fill="#D5DBE5" x="60" y="17" width="30" height="2"></rect>
                            <rect id="Rectangle-Copy-17" fill="#D5DBE5" x="60" y="12" width="30" height="2"></rect>
                            <circle id="Oval" stroke="#5B8ECA" cx="60.5" cy="110.5" r="9.5"></circle>
                            <circle id="Oval-Copy" stroke="#5B8ECA" cx="60.5" cy="110.5" r="6.5"></circle>
                            <circle id="Oval-Copy-2" stroke="#5B8ECA" cx="60.5" cy="110.5" r="3.5"></circle>
                            <path d="M67.8658505,112.782551 L68.1556159,112.775484 C68.235714,112.775484 68.3970858,112.762527 68.6397361,112.736613 C68.8823864,112.710699 69.0414024,112.684785 69.1167889,112.658871 C69.1921754,112.632957 69.2369354,112.62 69.2510704,112.62 C69.3170336,112.62 69.3500147,112.662404 69.3500147,112.747214 C69.3500147,112.869717 69.2428261,112.980439 69.0284458,113.079384 C68.8140654,113.178329 68.5678851,113.227801 68.2898974,113.227801 C68.1438361,113.322034 67.9895316,113.516387 67.8269795,113.810865 C67.6644274,114.105344 67.5077672,114.519963 67.3569942,115.054736 C67.2062212,115.589509 67.1308358,115.967614 67.1308358,116.189062 C67.1308358,116.410509 67.1838411,116.563636 67.2898534,116.648446 C67.3958657,116.733256 67.5595933,116.796862 67.7810411,116.839267 L67.6326247,117.100762 C67.5101216,117.110186 67.4182457,117.114897 67.3569942,117.114897 C67.1308347,117.114897 66.9553281,117.038334 66.8304692,116.885205 C66.7056103,116.732076 66.6431818,116.551858 66.6431818,116.344545 C66.6431818,116.137233 66.6620282,115.96526 66.6997214,115.828622 C66.9871325,114.683689 67.2274233,113.97224 67.4206012,113.694252 C67.519546,113.548191 67.6632493,113.390353 67.8517156,113.220733 L67.1873754,113.234868 C66.8764061,113.536414 66.604312,114.062934 66.3710851,114.814443 C66.1378581,115.565952 65.8598746,116.13841 65.5371261,116.531833 C65.2143777,116.925256 64.8315614,117.121965 64.3886657,117.121965 C64.2143344,117.121965 64.0494289,117.065426 63.8939443,116.952346 L64.0564956,116.683783 C64.1130355,116.712053 64.1766419,116.737967 64.2473167,116.761525 L64.346261,116.77566 C64.3698193,116.780371 64.4051562,116.782727 64.4522727,116.782727 C64.6878555,116.782727 64.898699,116.669649 65.0848094,116.44349 C65.2709198,116.21733 65.4664506,115.789754 65.6714076,115.160748 C65.8763647,114.531742 66.0365586,114.114766 66.1519942,113.909809 C66.2674297,113.704852 66.46885,113.477518 66.756261,113.227801 L65.7456159,113.206598 C64.7137632,113.206598 64.1978446,113.432754 64.1978446,113.885073 C64.1978446,114.002865 64.2414268,114.098274 64.3285924,114.171305 C64.415758,114.244336 64.5465045,114.28085 64.7208358,114.28085 C64.8951671,114.28085 65.123679,114.200753 65.4063783,114.040557 L65.5123901,114.224311 C65.3663287,114.379796 65.2014232,114.502297 65.0176686,114.591818 C64.8339141,114.68134 64.6501622,114.7261 64.4664076,114.7261 C64.2826531,114.7261 64.124815,114.664849 63.9928886,114.542346 C63.8609622,114.419843 63.795,114.266716 63.795,114.082962 C63.795,113.710741 63.9964203,113.385642 64.3992669,113.107654 C64.8021135,112.829666 65.3474795,112.690674 66.0353813,112.690674 C66.0495162,112.690674 66.1602385,112.697742 66.3675513,112.711877 C67.0695881,112.758993 67.5690161,112.782551 67.8658505,112.782551 Z M70.8553813,115.03 C70.9778843,115.232601 71.0391349,115.456402 71.0391349,115.701408 C71.0391349,116.083052 70.9072105,116.423464 70.6433578,116.722654 C70.3795051,117.021844 70.0685404,117.171437 69.7104546,117.171437 C69.4371785,117.171437 69.2239793,117.092518 69.0708505,116.934677 C68.9177216,116.776837 68.8411584,116.558926 68.8411584,116.280938 C68.8411584,115.833331 69.015487,115.431668 69.3641496,115.075938 C69.7128121,114.720208 70.1038737,114.542346 70.5373461,114.542346 C70.6174442,114.542346 70.6739832,114.544702 70.7069648,114.549413 L70.7281672,114.782639 C70.3512347,114.782639 70.0379143,114.891006 69.7881965,115.107742 C69.5384787,115.324478 69.4136217,115.602462 69.4136217,115.941701 C69.4136217,116.144302 69.4630934,116.30803 69.5620382,116.432889 C69.6609829,116.557747 69.8058642,116.620176 69.9966862,116.620176 C70.1875083,116.620176 70.3394569,116.535367 70.4525367,116.365748 C70.5656164,116.196128 70.6221555,115.997064 70.6221555,115.768548 C70.6221555,115.540033 70.5773954,115.331545 70.4878739,115.143079 L70.8553813,115.03 Z M74.0852053,116.874604 L74.0922728,117.044223 C74.0451562,117.072493 73.8307791,117.157301 73.4491349,117.298651 C73.2983619,118.198577 73.0769174,118.848776 72.7847948,119.249267 C72.4926721,119.649758 72.1345916,119.85 71.7105426,119.85 C71.512653,119.85 71.3548149,119.786394 71.2370235,119.659179 C71.1192321,119.531964 71.0603373,119.367059 71.0603373,119.164457 C71.0603373,118.759255 71.2464449,118.38115 71.6186657,118.030132 C71.9908865,117.679114 72.4879588,117.402308 73.1098974,117.199707 C73.1805722,116.884026 73.307785,116.438781 73.4915396,115.863959 C73.1758587,116.344548 72.8896299,116.669647 72.6328446,116.839267 C72.3760594,117.008886 72.1440138,117.093695 71.9367009,117.093695 C71.729388,117.093695 71.5727278,117.037156 71.4667156,116.924076 C71.3607033,116.810997 71.307698,116.660226 71.307698,116.47176 C71.307698,116.16079 71.4372666,115.843936 71.6964077,115.521188 C71.9555487,115.198439 72.281826,114.93459 72.6752493,114.729633 C73.0686726,114.524676 73.4491331,114.422199 73.8166423,114.422199 L73.8731819,114.66956 C73.350188,114.7261 72.9014095,114.909852 72.5268329,115.220821 C72.1522562,115.53179 71.9649707,115.830976 71.9649707,116.118387 C71.9649707,116.24089 72.0026634,116.342189 72.0780499,116.422287 C72.1534364,116.502386 72.2453123,116.542434 72.3536804,116.542434 C72.5138767,116.542434 72.7565233,116.372817 73.0816276,116.033578 C73.4067319,115.694338 73.6352438,115.404576 73.7671701,115.164282 L74.0286657,115.312698 C73.7695246,116.005311 73.5904844,116.589548 73.4915396,117.065425 L74.0852053,116.874604 Z M73.0674927,117.41173 C72.6575786,117.600196 72.3183445,117.826353 72.0497801,118.090205 C71.7812157,118.354058 71.6469355,118.594349 71.6469355,118.811085 C71.6469355,118.924165 71.6799166,119.016041 71.7458798,119.086716 C71.811843,119.15739 71.8942957,119.192727 71.9932405,119.192727 C72.1911301,119.192727 72.3866608,119.053736 72.5798387,118.775748 C72.7730166,118.49776 72.9355663,118.043092 73.0674927,117.41173 Z M77.0323314,116.273871 L77.1807478,116.38695 C77.0770914,116.594263 76.934566,116.768592 76.7531672,116.909941 C76.5717684,117.051291 76.4080408,117.121965 76.2619795,117.121965 C76.1159182,117.121965 76.0004843,117.079561 75.9156745,116.994751 C75.8308647,116.909941 75.7884604,116.80393 75.7884604,116.676716 C75.7884604,116.549501 75.8697353,116.326878 76.0322874,116.008842 C76.1948396,115.690805 76.2761144,115.456403 76.2761144,115.305631 C76.2761144,115.239667 76.2490228,115.179595 76.1948387,115.125411 C76.1406547,115.071227 76.0758704,115.044135 76.0004839,115.044135 C75.7601895,115.044135 75.5175428,115.226709 75.2725367,115.591862 C75.0275306,115.957016 74.7542586,116.483535 74.4527126,117.171437 L74.0286657,117.023021 C74.1181872,116.476468 74.2465779,115.942881 74.4138417,115.422243 C74.5811055,114.901605 74.7354099,114.528212 74.8767596,114.302053 L75.166525,114.39393 C75.0345986,114.728457 74.8673373,115.305626 74.6647361,116.125455 C75.3149446,115.013504 75.913316,114.457537 76.4598681,114.457537 C76.5776595,114.457537 76.6754249,114.497585 76.7531672,114.577683 C76.8309095,114.657781 76.8697801,114.752013 76.8697801,114.860381 C76.8697801,114.968749 76.8556453,115.066515 76.8273754,115.15368 C76.7991055,115.240846 76.7107632,115.443444 76.5623461,115.761481 C76.4139289,116.079518 76.3397214,116.278582 76.3397214,116.35868 C76.3397214,116.438779 76.3632794,116.501207 76.4103959,116.545968 C76.4575125,116.590728 76.5022726,116.613109 76.5446775,116.613109 C76.5870824,116.613109 76.6224193,116.606041 76.6506892,116.591906 C76.6789591,116.577771 76.7107623,116.556569 76.7460997,116.528299 C76.7814372,116.500029 76.8132404,116.474115 76.8415103,116.450557 C76.8697802,116.426999 76.9039392,116.395196 76.9439883,116.355147 C76.9840374,116.315098 77.0134848,116.288006 77.0323314,116.273871 Z M80.1490763,116.302141 L80.2974927,116.422287 C80.2173946,116.620177 80.0913597,116.787438 79.9193842,116.924076 C79.7474088,117.060714 79.5919264,117.129032 79.4529326,117.129032 C79.3139387,117.129032 79.2043944,117.080739 79.1242962,116.98415 C79.0441981,116.887561 79.0041496,116.761526 79.0041496,116.606041 C79.0041496,116.450556 79.0300633,116.250314 79.0818915,116.005308 C78.8604437,116.35397 78.6225086,116.627242 78.3680792,116.825132 C78.1136498,117.023022 77.8992727,117.121965 77.7249414,117.121965 C77.4610886,117.121965 77.3291643,116.964127 77.3291643,116.648446 C77.3291643,116.332765 77.4387086,115.907544 77.6578006,115.372771 C77.8768926,114.837998 78.0335528,114.532923 78.127786,114.457537 L78.4670235,114.605953 C78.2738456,114.916922 78.1277865,115.223175 78.0288417,115.524721 C77.9298969,115.826267 77.8804253,116.027688 77.8804253,116.128988 C77.8804253,116.230289 77.9122285,116.311564 77.9758358,116.372815 C78.0394432,116.434067 78.1136506,116.464692 78.1984604,116.464692 C78.3869267,116.464692 78.6213281,116.291541 78.9016716,115.945235 C79.1820151,115.598928 79.4682439,115.081831 79.7603666,114.39393 L80.1208065,114.556481 C80.1113832,114.594174 80.0041946,114.867446 79.7992376,115.376305 C79.5942805,115.885164 79.4918036,116.190239 79.4918036,116.29154 C79.4918036,116.39284 79.5141836,116.469403 79.5589443,116.521232 C79.6037051,116.57306 79.6484651,116.598974 79.6932258,116.598974 C79.7379866,116.598974 79.7721456,116.596618 79.7957039,116.591906 C79.8192621,116.587195 79.8428201,116.577771 79.8663783,116.563636 C79.8899366,116.549501 79.9099609,116.537722 79.9264517,116.528299 C79.9429425,116.518876 79.9629667,116.502385 79.986525,116.478827 L80.0359971,116.422287 C80.0501321,116.412864 80.0701563,116.39284 80.0960704,116.362214 C80.1219845,116.331588 80.139653,116.311564 80.1490763,116.302141 Z M82.3753226,116.125455 L82.5449414,116.266804 C82.4318617,116.525945 82.2504656,116.733254 82.0007478,116.888739 C81.7510301,117.044224 81.5095613,117.121965 81.2763344,117.121965 C81.0431074,117.121965 80.8499324,117.048935 80.6968036,116.902874 C80.5436747,116.756813 80.4671115,116.55657 80.4671115,116.302141 C80.4671115,116.047711 80.5778337,115.772084 80.7992816,115.475249 C81.0207294,115.178415 81.3069582,114.933413 81.6579766,114.740235 C82.008995,114.547057 82.3541186,114.450469 82.6933578,114.450469 C82.7404744,114.450469 82.8111482,114.455181 82.9053813,114.464604 L82.8841789,114.740235 C82.3658968,114.763793 81.9359646,114.921631 81.5943695,115.213754 C81.2527745,115.505876 81.0819795,115.816841 81.0819795,116.146657 C81.0819795,116.283295 81.1243838,116.394017 81.2091936,116.478827 C81.2940034,116.563637 81.4047257,116.606041 81.5413637,116.606041 C81.7580999,116.606041 82.0360834,116.445847 82.3753226,116.125455 Z M84.2835338,115.517654 C84.5426749,115.508231 84.6722434,115.614241 84.6722434,115.835689 C84.6722434,116.127812 84.5155832,116.416396 84.2022581,116.701452 C83.888933,116.986507 83.5744347,117.129032 83.2587537,117.129032 C82.9619194,117.129032 82.8135044,116.92879 82.8135044,116.528299 C82.8135044,116.212618 82.8924235,115.820379 83.050264,115.351569 C83.2081044,114.882759 83.3388509,114.55177 83.4425074,114.358592 L83.7605426,114.464604 C83.6380395,114.82269 83.5131825,115.260867 83.3859678,115.77915 C83.7629003,115.604818 84.0620859,115.517654 84.2835338,115.517654 Z M84.1704546,116.245601 C84.1987245,116.18435 84.2128593,116.123099 84.2128593,116.061848 C84.1987243,115.934633 84.0880021,115.871026 83.8806892,115.871026 C83.7817444,115.871026 83.5979926,115.913431 83.3294282,115.99824 C83.2917349,116.13959 83.2728886,116.265625 83.2728886,116.376349 C83.2728886,116.487073 83.2999802,116.575415 83.3541643,116.641378 C83.4083483,116.707341 83.4813779,116.740323 83.5732552,116.740323 C83.6651325,116.740323 83.7746768,116.692029 83.9018915,116.59544 C84.0291063,116.498851 84.1186264,116.382239 84.1704546,116.245601 Z" id="Подпись" fill="#000000"></path>
                        </g>
                    </g>
                </g>
            </g>
        </g>
    </g>
</svg>
